<?xml version="1.0" encoding="UTF-8" standalone="no"?><svg xmlns="http://www.w3.org/2000/svg" xmlns:xlink="http://www.w3.org/1999/xlink" contentStyleType="text/css" height="93px" preserveAspectRatio="none" style="width:532px;height:93px;background:#FFFFFF;" version="1.1" viewBox="0 0 532 93" width="532px" zoomAndPan="magnify"><defs/><g><line style="stroke:#333333;stroke-width:0.5;" x1="10" x2="10" y1="10" y2="63.5938"/><line style="stroke:#333333;stroke-width:0.5;" x1="520" x2="520" y1="10" y2="63.5938"/><line style="stroke:#333333;stroke-width:0.5;stroke-dasharray:3.0,5.0;" x1="15" x2="15" y1="10" y2="63.5938"/><line style="stroke:#333333;stroke-width:0.5;stroke-dasharray:3.0,5.0;" x1="65" x2="65" y1="10" y2="63.5938"/><line style="stroke:#333333;stroke-width:0.5;stroke-dasharray:3.0,5.0;" x1="115" x2="115" y1="10" y2="63.5938"/><line style="stroke:#333333;stroke-width:0.5;stroke-dasharray:3.0,5.0;" x1="165" x2="165" y1="10" y2="63.5938"/><line style="stroke:#333333;stroke-width:0.5;stroke-dasharray:3.0,5.0;" x1="215" x2="215" y1="10" y2="63.5938"/><line style="stroke:#333333;stroke-width:0.5;stroke-dasharray:3.0,5.0;" x1="265" x2="265" y1="10" y2="63.5938"/><line style="stroke:#333333;stroke-width:0.5;stroke-dasharray:3.0,5.0;" x1="315" x2="315" y1="10" y2="63.5938"/><line style="stroke:#333333;stroke-width:0.5;stroke-dasharray:3.0,5.0;" x1="365" x2="365" y1="10" y2="63.5938"/><line style="stroke:#333333;stroke-width:0.5;stroke-dasharray:3.0,5.0;" x1="415" x2="415" y1="10" y2="63.5938"/><line style="stroke:#333333;stroke-width:0.5;stroke-dasharray:3.0,5.0;" x1="465" x2="465" y1="10" y2="63.5938"/><line style="stroke:#333333;stroke-width:0.5;stroke-dasharray:3.0,5.0;" x1="515" x2="515" y1="10" y2="63.5938"/><line style="stroke:#333333;stroke-width:0.5;" x1="10" x2="520" y1="10" y2="10"/><text fill="#333333" font-family="Cousine" font-size="12" font-weight="bold" lengthAdjust="spacing" textLength="70" x="15" y="19.9902">Processeur</text><line style="stroke:#333333;stroke-width:0.5;" x1="10" x2="86" y1="24.5938" y2="24.5938"/><line style="stroke:#333333;stroke-width:0.5;" x1="86" x2="96" y1="24.5938" y2="10"/><polygon fill="#E2E2F0" points="377,29.5938,453,29.5938,465,41.5938,453,53.5938,377,53.5938,365,41.5938" style="stroke:#006400;stroke-width:1.5;"/><text fill="#333333" font-family="Cousine" font-size="12" font-weight="bold" lengthAdjust="spacing" textLength="14" x="408" y="44.7871">P4</text><line style="stroke:#333333;stroke-width:2.0;" x1="15" x2="15" y1="63.5938" y2="68.5938"/><line style="stroke:#333333;stroke-width:2.0;" x1="65" x2="65" y1="63.5938" y2="68.5938"/><line style="stroke:#333333;stroke-width:2.0;" x1="115" x2="115" y1="63.5938" y2="68.5938"/><line style="stroke:#333333;stroke-width:2.0;" x1="165" x2="165" y1="63.5938" y2="68.5938"/><line style="stroke:#333333;stroke-width:2.0;" x1="215" x2="215" y1="63.5938" y2="68.5938"/><line style="stroke:#333333;stroke-width:2.0;" x1="265" x2="265" y1="63.5938" y2="68.5938"/><line style="stroke:#333333;stroke-width:2.0;" x1="315" x2="315" y1="63.5938" y2="68.5938"/><line style="stroke:#333333;stroke-width:2.0;" x1="365" x2="365" y1="63.5938" y2="68.5938"/><line style="stroke:#333333;stroke-width:2.0;" x1="415" x2="415" y1="63.5938" y2="68.5938"/><line style="stroke:#333333;stroke-width:2.0;" x1="465" x2="465" y1="63.5938" y2="68.5938"/><line style="stroke:#333333;stroke-width:2.0;" x1="515" x2="515" y1="63.5938" y2="68.5938"/><line style="stroke:#333333;stroke-width:2.0;" x1="15" x2="515" y1="63.5938" y2="63.5938"/><text fill="#333333" font-family="Cousine" font-size="12" lengthAdjust="spacing" textLength="7" x="11.5" y="79.584">0</text><text fill="#333333" font-family="Cousine" font-size="12" lengthAdjust="spacing" textLength="7" x="61.5" y="79.584">1</text><text fill="#333333" font-family="Cousine" font-size="12" lengthAdjust="spacing" textLength="7" x="361.5" y="79.584">7</text><text fill="#333333" font-family="Cousine" font-size="12" lengthAdjust="spacing" textLength="7" x="461.5" y="79.584">9</text><!--MD5=[1725d2b02a3e9ec2a4d8c479d7c4fc54]
@startuml
!define PLANTUML_HOME /home/patrice/org
!include PLANTUML_HOME/SimpleSkin.iuml
concise "Processeur" as P
@0
P is {hidden}
@1
P is {hidden}
@7
P is P4
@9
P is {hidden}
@enduml

@startuml
skinparam TitleFontColor  red
skinparam ClassFontName Cousine
skinparam ClassFontSize 16
skinparam ClassAttributeFontName Cousine
skinparam ClassAttributeFontSize 12
skinparam ClassBackgroundColor Cyan
skinparam ClassHeaderBackgroundColor DeepSkyBlue
skinparam DefaultFontName Cousine
skinparam DefaultFontSize 12
skinparam ActivityBackgroundColor Cyan
skinparam NoteBackgroundColor DeepSkyBlue
skinparam UseCaseBackgroundColor Cyan
skinparam activityDiamondBackgroundColor Yellow 
concise "Processeur" as P
@0
P is {hidden}
@1
P is {hidden}
@7
P is P4
@9
P is {hidden}
@enduml

PlantUML version 1.2022.13(Sat Nov 19 14:22:17 CET 2022)
(GPL source distribution)
Java Runtime: OpenJDK Runtime Environment
JVM: OpenJDK 64-Bit Server VM
Default Encoding: UTF-8
Language: fr
Country: FR
--></g></svg>